Reformatting Data
…
grades %>%
   gather(Semester, Score, Fall:Winter)

## # A tibble: 36 × 5
##       ID  Test  Year Semester Score
##    <int> <int> <int>    <chr> <int>
## 1      1     1  2008     Fall    15
## 2      1     1  2009     Fall    12
## 3      1     2  2008     Fall    22
## 4      1     2  2009     Fall    10
## 5      2     1  2008     Fall    12
## 6      2     1  2009     Fall    16
## 7      2     2  2008     Fall    13
## 8      2     2  2009     Fall    23
## 9      3     1  2008     Fall    11
## 10     3     1  2009     Fall    13
## # ... with 26 more rows

grades %>%
   gather(Semester, Score, Fall:Winter) %>%
   mutate(Test = paste0("Test", Test))

## # A tibble: 36 × 5
##       ID  Test  Year Semester Score
##    <int> <chr> <int>    <chr> <int>
## 1      1 Test1  2008     Fall    15
## 2      1 Test1  2009     Fall    12
## 3      1 Test2  2008     Fall    22
## 4      1 Test2  2009     Fall    10
## 5      2 Test1  2008     Fall    12
## 6      2 Test1  2009     Fall    16
## 7      2 Test2  2008     Fall    13
## 8      2 Test2  2009     Fall    23
## 9      3 Test1  2008     Fall    11
## 10     3 Test1  2009     Fall    13
## # ... with 26 more rows
…
